Rank teams in the qualifying matches of an event by a scoring variable — get_ranking_by_diff • tba
…
    Examples

# example code
# get all matches for one event:
matches <- get_records("event/2024cttd/matches")
# get the score breakdown for each of the teams in each match
match_details <- get_match_details(matches)

library(dplyr, quietly=TRUE)
# now get the contribution to the score:
match_details %>% filter(comp_level == "qm") %>% # get the qualifying matches
  get_ranking_by_diff(score)
#> # A tibble: 41 × 3
#>    team_key     n `rating_diff(score)`
#>    <chr>    <int>                <dbl>
#>  1 frc3284      8                35.8 
#>  2 frc5801      8                17.4 
#>  3 frc5126      8                16.8 
#>  4 frc3928      8                15.3 
#>  5 frc1108      8                11.3 
#>  6 frc1769      8                 9.23
#>  7 frc1987      8                 9.16
#>  8 frc1730      8                 6.54
#>  9 frc5968      8                 4.97
#> 10 frc5098      8                 2.60
#> # ℹ 31 more rows

# additionally get the team contributions to the score without counting the opponents' fouls:
match_details %>% filter(comp_level == "qm") %>% 
  get_ranking_by_diff(score, score-foulPoints)
#> # A tibble: 41 × 4
#>    team_key     n `rating_diff(score)` `rating_diff(score - foulPoints)`
#>    <chr>    <int>                <dbl>                             <dbl>
#>  1 frc3284      8                35.8                              9.11 
#>  2 frc5801      8                17.4                             -3.86 
#>  3 frc5126      8                16.8                             -8.23 
#>  4 frc3928      8                15.3                             -4.33 
#>  5 frc1108      8                11.3                             -1.14 
#>  6 frc1769      8                 9.23                           -15.9  
#>  7 frc1987      8                 9.16                            -0.239
#>  8 frc1730      8                 6.54                           -11.3  
#>  9 frc5968      8                 4.97                           -17.6  
#> 10 frc5098      8                 2.60                           -17.6  
#> # ℹ 31 more rows
…
